alembic==1.4.2
bcrypt==3.1.7
cffi==1.14.0
click==7.1.2
Flask==1.1.2
Flask-Bcrypt==0.7.1
Flask-Migrate==2.5.3
Flask-Script==2.0.6
Flask-SQLAlchemy==2.4.1
gunicorn==20.0.4
itsdangerous==1.1.0
Jinja2==2.11.2
Mako==1.1.2
MarkupSafe==1.1.1
psycopg2==2.8.5
pycparser==2.20
python-dateutil==2.8.1
python-dotenv==0.13.0
python-editor==1.0.4
six==1.14.0
SQLAlchemy==1.3.17
Werkzeug==1.0.1
